SM1: Formant tracking, preprocessing, and normalisation
…
vowel_models <- vowel_models |> 
  mutate(
    predictions = map(lm_fit, ~ get_predictions(.x, to_predict))
  )

vowel_predictions <- vowel_models |> 
  select(vowel, formant, predictions) |> 
  unnest(predictions)

vowel_predictions

# A tibble: 1,140 × 5
# Groups:   vowel, formant [30]
   vowel formant gender   age   fit
   <fct> <chr>   <chr>  <int> <dbl>
 1 TRAP  F1_50   M         47  853.
 2 TRAP  F1_50   M         48  847.
 3 TRAP  F1_50   M         49  842.
 4 TRAP  F1_50   M         50  836.
 5 TRAP  F1_50   M         51  830.
 6 TRAP  F1_50   M         52  824.
 7 TRAP  F1_50   M         53  819.
 8 TRAP  F1_50   M         54  813.
 9 TRAP  F1_50   M         55  807.
10 TRAP  F1_50   M         56  802.
# ℹ 1,130 more rows
…
imputation_counts

# A tibble: 236 × 5
# Groups:   participant [132]
   participant  collect n_vowels n_tokens pc            
   <fct>        <fct>      <int>    <int> <chr>         
 1 EC0102-Child 3              5        9 EC0102-Child-3
 2 EC0102-Child 4              2        2 EC0102-Child-4
 3 EC0103-Child 2              6       12 EC0103-Child-2
 4 EC0103-Child 3              8       23 EC0103-Child-3
 5 EC0103-Child 4              6       12 EC0103-Child-4
 6 EC0105-Child 1              4        6 EC0105-Child-1
 7 EC0105-Child 2              4        7 EC0105-Child-2
 8 EC0106-Child 1              6       13 EC0106-Child-1
 9 EC0106-Child 3              6       12 EC0106-Child-3
10 EC0108-Child 1              8       19 EC0108-Child-1
# ℹ 226 more rows
…
